<?xml version="1.0" encoding="UTF-8"?>
<!DOCTYPE plist PUBLIC "-//Apple//DTD PLIST 1.0//EN" "http://www.apple.com/DTDs/PropertyList-1.0.dtd">
<plist version="1.0">
<dict>
	<key>gridsize</key>
	<integer>4</integer>
	<key>hidelabels</key>
	<false/>
	<key>iconid</key>
	<string>63FADEA3-BD5E-4D89-ADA1-FF26343CD6A7</string>
	<key>iconisuserspecified</key>
	<true/>
	<key>items</key>
	<array>
		<dict>
			<key>actionconfig</key>
			<dict>
				<key>command</key>
				<integer>15</integer>
			</dict>
			<key>actionuid</key>
			<string>remote.alfred.itunescommand</string>
			<key>buttoniconid</key>
			<string>71A5920D-6548-449D-B72E-04FFB88627F2</string>
			<key>buttonlabel</key>
			<string>Back track</string>
			<key>itemuid</key>
			<string>6F874C9F-7845-480F-AA57-CCE157AF13E0</string>
		</dict>
		<dict>
			<key>actionconfig</key>
			<dict>
				<key>command</key>
				<integer>1</integer>
			</dict>
			<key>actionuid</key>
			<string>remote.alfred.itunescommand</string>
			<key>buttoniconid</key>
			<string>4D94D477-7D69-4977-9F07-5F65A51DE781</string>
			<key>buttonlabel</key>
			<string>Play or Pause</string>
			<key>itemuid</key>
			<string>990BED1E-79BA-4094-946D-CA6CA6D48104</string>
		</dict>
		<dict>
			<key>actionconfig</key>
			<dict>
				<key>command</key>
				<integer>2</integer>
			</dict>
			<key>actionuid</key>
			<string>remote.alfred.itunescommand</string>
			<key>buttoniconid</key>
			<string>33B08418-E328-43AF-81E7-173825EBE3C1</string>
			<key>buttonlabel</key>
			<string>Next track</string>
			<key>itemuid</key>
			<string>E94FFAFB-0138-4EB9-B5EB-2CA820158EE6</string>
		</dict>
		<dict>
			<key>actionconfig</key>
			<dict>
				<key>command</key>
				<integer>4</integer>
			</dict>
			<key>actionuid</key>
			<string>remote.alfred.itunescommand</string>
			<key>buttoniconid</key>
			<string>F4AE989D-8BCA-4432-B120-8D8013FA02A5</string>
			<key>buttonlabel</key>
			<string>Random album</string>
			<key>itemuid</key>
			<string>BE9D0AA2-6DAC-4CE2-8F27-2ED169AD5BCA</string>
		</dict>
		<dict>
			<key>actionconfig</key>
			<dict>
				<key>command</key>
				<integer>8</integer>
			</dict>
			<key>actionuid</key>
			<string>remote.alfred.itunescommand</string>
			<key>buttoniconid</key>
			<string>FA61F600-F462-4EB0-8410-77E3D7F428B9</string>
			<key>buttonlabel</key>
			<string>Mute</string>
			<key>itemuid</key>
			<string>974F4189-1A0E-4F89-8540-F3AF0B0A269B</string>
		</dict>
		<dict>
			<key>actionconfig</key>
			<dict>
				<key>command</key>
				<integer>7</integer>
			</dict>
			<key>actionuid</key>
			<string>remote.alfred.itunescommand</string>
			<key>buttoniconid</key>
			<string>3D5A1506-2AD2-46CE-B4DC-9EEF5F62BF58</string>
			<key>buttonlabel</key>
			<string>Volume down</string>
			<key>itemuid</key>
			<string>B0649FCB-1E9E-495C-8097-86D428160EDC</string>
		</dict>
		<dict>
			<key>actionconfig</key>
			<dict>
				<key>command</key>
				<integer>6</integer>
			</dict>
			<key>actionuid</key>
			<string>remote.alfred.itunescommand</string>
			<key>buttoniconid</key>
			<string>907043F7-07EF-49C5-8444-2D36C0D4FF5C</string>
			<key>buttonlabel</key>
			<string>Volume up</string>
			<key>itemuid</key>
			<string>EC4427C4-BEC8-4DCB-BEAE-0C5931E60097</string>
		</dict>
		<dict>
			<key>actionconfig</key>
			<dict>
				<key>command</key>
				<integer>5</integer>
			</dict>
			<key>actionuid</key>
			<string>remote.alfred.itunescommand</string>
			<key>buttoniconid</key>
			<string>93165913-B005-4472-9433-4E5B44221153</string>
			<key>buttonlabel</key>
			<string>Maximum volume</string>
			<key>itemuid</key>
			<string>68235E6C-6D5E-4BB5-ADB2-729E385ED7B0</string>
		</dict>
		<dict/>
		<dict/>
		<dict/>
		<dict/>
		<dict>
			<key>actionconfig</key>
			<dict>
				<key>command</key>
				<integer>14</integer>
			</dict>
			<key>actionuid</key>
			<string>remote.alfred.itunescommand</string>
			<key>buttoniconid</key>
			<string>B94CC548-088E-4B44-B68A-75D87E516B71</string>
			<key>buttonlabel</key>
			<string>Clear rating for current track</string>
			<key>itemuid</key>
			<string>43E32627-44DC-46F5-BB71-115603CD8E75</string>
		</dict>
		<dict>
			<key>actionconfig</key>
			<dict>
				<key>command</key>
				<integer>9</integer>
			</dict>
			<key>actionuid</key>
			<string>remote.alfred.itunescommand</string>
			<key>buttoniconid</key>
			<string>F3973FE4-1957-4AC4-9D28-3BA78F09BAE6</string>
			<key>buttonlabel</key>
			<string>★ for current track</string>
			<key>itemuid</key>
			<string>85ED03A3-BE36-45C5-B85C-B4612CC37C48</string>
		</dict>
		<dict>
			<key>actionconfig</key>
			<dict>
				<key>command</key>
				<integer>11</integer>
			</dict>
			<key>actionuid</key>
			<string>remote.alfred.itunescommand</string>
			<key>buttoniconid</key>
			<string>AA854AEC-7CC7-46B2-AFAF-36E6298BAEDE</string>
			<key>buttonlabel</key>
			<string>★★★ for current track</string>
			<key>itemuid</key>
			<string>DE306E30-022D-4873-9A83-4DF837ACF4E9</string>
		</dict>
		<dict>
			<key>actionconfig</key>
			<dict>
				<key>command</key>
				<integer>13</integer>
			</dict>
			<key>actionuid</key>
			<string>remote.alfred.itunescommand</string>
			<key>buttoniconid</key>
			<string>5AC88960-3418-45CC-8112-3E8A994DC7C0</string>
			<key>buttonlabel</key>
			<string>★★★★★ for current track</string>
			<key>itemuid</key>
			<string>228FF46F-AD22-468B-9DCC-20E8F5C0EA27</string>
		</dict>
	</array>
	<key>itemsall</key>
	<array>
		<dict>
			<key>actionconfig</key>
			<dict>
				<key>command</key>
				<integer>15</integer>
			</dict>
			<key>actionuid</key>
			<string>remote.alfred.itunescommand</string>
			<key>buttoniconid</key>
			<string>71A5920D-6548-449D-B72E-04FFB88627F2</string>
			<key>buttonlabel</key>
			<string>Back track</string>
			<key>itemuid</key>
			<string>6F874C9F-7845-480F-AA57-CCE157AF13E0</string>
		</dict>
		<dict>
			<key>actionconfig</key>
			<dict>
				<key>command</key>
				<integer>1</integer>
			</dict>
			<key>actionuid</key>
			<string>remote.alfred.itunescommand</string>
			<key>buttoniconid</key>
			<string>4D94D477-7D69-4977-9F07-5F65A51DE781</string>
			<key>buttonlabel</key>
			<string>Play or Pause</string>
			<key>itemuid</key>
			<string>990BED1E-79BA-4094-946D-CA6CA6D48104</string>
		</dict>
		<dict>
			<key>actionconfig</key>
			<dict>
				<key>command</key>
				<integer>2</integer>
			</dict>
			<key>actionuid</key>
			<string>remote.alfred.itunescommand</string>
			<key>buttoniconid</key>
			<string>33B08418-E328-43AF-81E7-173825EBE3C1</string>
			<key>buttonlabel</key>
			<string>Next track</string>
			<key>itemuid</key>
			<string>E94FFAFB-0138-4EB9-B5EB-2CA820158EE6</string>
		</dict>
		<dict>
			<key>actionconfig</key>
			<dict>
				<key>command</key>
				<integer>4</integer>
			</dict>
			<key>actionuid</key>
			<string>remote.alfred.itunescommand</string>
			<key>buttoniconid</key>
			<string>F4AE989D-8BCA-4432-B120-8D8013FA02A5</string>
			<key>buttonlabel</key>
			<string>Random album</string>
			<key>itemuid</key>
			<string>BE9D0AA2-6DAC-4CE2-8F27-2ED169AD5BCA</string>
		</dict>
		<dict>
			<key>actionconfig</key>
			<dict>
				<key>command</key>
				<integer>8</integer>
			</dict>
			<key>actionuid</key>
			<string>remote.alfred.itunescommand</string>
			<key>buttoniconid</key>
			<string>FA61F600-F462-4EB0-8410-77E3D7F428B9</string>
			<key>buttonlabel</key>
			<string>Mute</string>
			<key>itemuid</key>
			<string>974F4189-1A0E-4F89-8540-F3AF0B0A269B</string>
		</dict>
		<dict>
			<key>actionconfig</key>
			<dict>
				<key>command</key>
				<integer>7</integer>
			</dict>
			<key>actionuid</key>
			<string>remote.alfred.itunescommand</string>
			<key>buttoniconid</key>
			<string>3D5A1506-2AD2-46CE-B4DC-9EEF5F62BF58</string>
			<key>buttonlabel</key>
			<string>Volume down</string>
			<key>itemuid</key>
			<string>B0649FCB-1E9E-495C-8097-86D428160EDC</string>
		</dict>
		<dict>
			<key>actionconfig</key>
			<dict>
				<key>command</key>
				<integer>6</integer>
			</dict>
			<key>actionuid</key>
			<string>remote.alfred.itunescommand</string>
			<key>buttoniconid</key>
			<string>907043F7-07EF-49C5-8444-2D36C0D4FF5C</string>
			<key>buttonlabel</key>
			<string>Volume up</string>
			<key>itemuid</key>
			<string>EC4427C4-BEC8-4DCB-BEAE-0C5931E60097</string>
		</dict>
		<dict>
			<key>actionconfig</key>
			<dict>
				<key>command</key>
				<integer>5</integer>
			</dict>
			<key>actionuid</key>
			<string>remote.alfred.itunescommand</string>
			<key>buttoniconid</key>
			<string>93165913-B005-4472-9433-4E5B44221153</string>
			<key>buttonlabel</key>
			<string>Maximum volume</string>
			<key>itemuid</key>
			<string>68235E6C-6D5E-4BB5-ADB2-729E385ED7B0</string>
		</dict>
		<dict/>
		<dict/>
		<dict/>
		<dict/>
		<dict>
			<key>actionconfig</key>
			<dict>
				<key>command</key>
				<integer>14</integer>
			</dict>
			<key>actionuid</key>
			<string>remote.alfred.itunescommand</string>
			<key>buttoniconid</key>
			<string>B94CC548-088E-4B44-B68A-75D87E516B71</string>
			<key>buttonlabel</key>
			<string>Clear rating for current track</string>
			<key>itemuid</key>
			<string>43E32627-44DC-46F5-BB71-115603CD8E75</string>
		</dict>
		<dict>
			<key>actionconfig</key>
			<dict>
				<key>command</key>
				<integer>9</integer>
			</dict>
			<key>actionuid</key>
			<string>remote.alfred.itunescommand</string>
			<key>buttoniconid</key>
			<string>F3973FE4-1957-4AC4-9D28-3BA78F09BAE6</string>
			<key>buttonlabel</key>
			<string>★ for current track</string>
			<key>itemuid</key>
			<string>85ED03A3-BE36-45C5-B85C-B4612CC37C48</string>
		</dict>
		<dict>
			<key>actionconfig</key>
			<dict>
				<key>command</key>
				<integer>11</integer>
			</dict>
			<key>actionuid</key>
			<string>remote.alfred.itunescommand</string>
			<key>buttoniconid</key>
			<string>AA854AEC-7CC7-46B2-AFAF-36E6298BAEDE</string>
			<key>buttonlabel</key>
			<string>★★★ for current track</string>
			<key>itemuid</key>
			<string>DE306E30-022D-4873-9A83-4DF837ACF4E9</string>
		</dict>
		<dict>
			<key>actionconfig</key>
			<dict>
				<key>command</key>
				<integer>13</integer>
			</dict>
			<key>actionuid</key>
			<string>remote.alfred.itunescommand</string>
			<key>buttoniconid</key>
			<string>5AC88960-3418-45CC-8112-3E8A994DC7C0</string>
			<key>buttonlabel</key>
			<string>★★★★★ for current track</string>
			<key>itemuid</key>
			<string>228FF46F-AD22-468B-9DCC-20E8F5C0EA27</string>
		</dict>
		<dict/>
		<dict/>
		<dict/>
		<dict/>
		<dict/>
		<dict/>
		<dict/>
		<dict/>
		<dict/>
		<dict/>
		<dict/>
		<dict/>
		<dict/>
		<dict/>
		<dict/>
		<dict/>
		<dict/>
		<dict/>
		<dict/>
		<dict/>
	</array>
	<key>subtitle</key>
	<string>Control Music.app</string>
	<key>title</key>
	<string>Music Control</string>
</dict>
</plist>
